…
Create a plot that shows the estimated ORs and CIs for each city.
Organize cities according to estimated OR, and comment on the plot.

``` r
fit_logr_cities %>% 
  arrange(desc(OR)) %>% 
  mutate(city_state = fct_inorder(city_state))
```

    ## # A tibble: 47 x 4
    ##    city_state            OR lower_95ci upper_95ci
    ##    <fct>              <dbl>      <dbl>      <dbl>
    ##  1 Tampa, FL          1.16       0.587       2.29
    ##  2 Birmingham, AL     1.04       0.615       1.76
    ##  3 Durham, NC         1.00       0.404       2.49
    ##  4 Nashville, TN      0.899      0.653       1.24
    ##  5 San Bernardino, CA 0.880      0.393       1.97
    ##  6 Houston, TX        0.873      0.699       1.09
    ##  7 Columbus, OH       0.855      0.634       1.15
    ##  8 Fort Worth, TX     0.838      0.555       1.27
    ##  9 Long Beach, CA     0.794      0.388       1.63
    ## 10 Memphis, TN        0.782      0.524       1.17
    ## # ... with 37 more rows
…
